{
  "content": [
    {
      "entryId": 2,
      "content": "",
      "created": {
        "name": "Toshiaki Maki",
        "date": "2016-10-12T07:12:00Z"
      },
      "updated": {
        "name": "Toshiaki Maki",
        "date": "2017-04-26T16:46:13Z"
      },
      "frontMatter": {
        "title": "Hello Spring Boot",
        "categories": [
          "Programming",
          "Java",
          "org",
          "springframework",
          "boot"
        ],
        "tags": [
          "Java",
          "Spring",
          "Spring Boot"
        ]
      }
    },
    {
      "entryId": 1,
      "content": "",
      "created": {
        "name": "Toshiaki Maki",
        "date": "2016-04-22T19:17:37Z"
      },
      "updated": {
        "name": "Toshiaki Maki",
        "date": "2016-04-24T15:28:58Z"
      },
      "frontMatter": {
        "title": "Hello Java8",
        "categories": [
          "Programming",
          "Java"
        ],
        "tags": [
          "Java",
          "Java8",
          "Stream"
        ]
      }
    }
  ],
  "last": false,
  "totalPages": 10,
  "totalElements": 20,
  "sort": null,
  "numberOfElements": 2,
  "first": true,
  "size": 2,
  "number": 0
}